%!PS-Adobe-3.0 EPSF-3.0
%%Creator: (MATLAB, The Mathworks, Inc. Version 9.8.0.1417392 \(R2020a\) Update 4. Operating System: Linux)
%%Title: /home/jrhrsmit/thesis/thesis-latex/figures/edp_same_perf.eps
%%CreationDate: 2021-04-09T18:06:52
%%Pages: (atend)
%%BoundingBox:     0     0   893   344
%%LanguageLevel: 3
%%EndComments
%%BeginProlog
%%BeginResource: procset (Apache XML Graphics Std ProcSet) 1.2 0
%%Version: 1.2 0
%%Copyright: (Copyright 2001-2003,2010 The Apache Software Foundation. License terms: http://www.apache.org/licenses/LICENSE-2.0)
/bd{bind def}bind def
/ld{load def}bd
/GR/grestore ld
/GS/gsave ld
/RM/rmoveto ld
/C/curveto ld
/t/show ld
/L/lineto ld
/ML/setmiterlimit ld
/CT/concat ld
/f/fill ld
/N/newpath ld
/S/stroke ld
/CC/setcmykcolor ld
/A/ashow ld
/cp/closepath ld
/RC/setrgbcolor ld
/LJ/setlinejoin ld
/GC/setgray ld
/LW/setlinewidth ld
/M/moveto ld
/re {4 2 roll M
1 index 0 rlineto
0 exch rlineto
neg 0 rlineto
cp } bd
/_ctm matrix def
/_tm matrix def
/BT { _ctm currentmatrix pop matrix _tm copy pop 0 0 moveto } bd
/ET { _ctm setmatrix } bd
/iTm { _ctm setmatrix _tm concat } bd
/Tm { _tm astore pop iTm 0 0 moveto } bd
/ux 0.0 def
/uy 0.0 def
/F {
  /Tp exch def
  /Tf exch def
  Tf findfont Tp scalefont setfont
  /cf Tf def  /cs Tp def
} bd
/ULS {currentpoint /uy exch def /ux exch def} bd
/ULE {
  /Tcx currentpoint pop def
  gsave
  newpath
  cf findfont cs scalefont dup
  /FontMatrix get 0 get /Ts exch def /FontInfo get dup
  /UnderlinePosition get Ts mul /To exch def
  /UnderlineThickness get Ts mul /Tt exch def
  ux uy To add moveto  Tcx uy To add lineto
  Tt setlinewidth stroke
  grestore
} bd
/OLE {
  /Tcx currentpoint pop def
  gsave
  newpath
  cf findfont cs scalefont dup
  /FontMatrix get 0 get /Ts exch def /FontInfo get dup
  /UnderlinePosition get Ts mul /To exch def
  /UnderlineThickness get Ts mul /Tt exch def
  ux uy To add cs add moveto Tcx uy To add cs add lineto
  Tt setlinewidth stroke
  grestore
} bd
/SOE {
  /Tcx currentpoint pop def
  gsave
  newpath
  cf findfont cs scalefont dup
  /FontMatrix get 0 get /Ts exch def /FontInfo get dup
  /UnderlinePosition get Ts mul /To exch def
  /UnderlineThickness get Ts mul /Tt exch def
  ux uy To add cs 10 mul 26 idiv add moveto Tcx uy To add cs 10 mul 26 idiv add lineto
  Tt setlinewidth stroke
  grestore
} bd
/QT {
/Y22 exch store
/X22 exch store
/Y21 exch store
/X21 exch store
currentpoint
/Y21 load 2 mul add 3 div exch
/X21 load 2 mul add 3 div exch
/X21 load 2 mul /X22 load add 3 div
/Y21 load 2 mul /Y22 load add 3 div
/X22 load /Y22 load curveto
} bd
/SSPD {
dup length /d exch dict def
{
/v exch def
/k exch def
currentpagedevice k known {
/cpdv currentpagedevice k get def
v cpdv ne {
/upd false def
/nullv v type /nulltype eq def
/nullcpdv cpdv type /nulltype eq def
nullv nullcpdv or
{
/upd true def
} {
/sametype v type cpdv type eq def
sametype {
v type /arraytype eq {
/vlen v length def
/cpdvlen cpdv length def
vlen cpdvlen eq {
0 1 vlen 1 sub {
/i exch def
/obj v i get def
/cpdobj cpdv i get def
obj cpdobj ne {
/upd true def
exit
} if
} for
} {
/upd true def
} ifelse
} {
v type /dicttype eq {
v {
/dv exch def
/dk exch def
/cpddv cpdv dk get def
dv cpddv ne {
/upd true def
exit
} if
} forall
} {
/upd true def
} ifelse
} ifelse
} if
} ifelse
upd true eq {
d k v put
} if
} if
} if
} forall
d length 0 gt {
d setpagedevice
} if
} bd
/RE { % /NewFontName [NewEncodingArray] /FontName RE -
  findfont dup length dict begin
  {
    1 index /FID ne
    {def} {pop pop} ifelse
  } forall
  /Encoding exch def
  /FontName 1 index def
  currentdict definefont pop
  end
} bind def
%%EndResource
%%BeginResource: procset (Apache XML Graphics EPS ProcSet) 1.0 0
%%Version: 1.0 0
%%Copyright: (Copyright 2002-2003 The Apache Software Foundation. License terms: http://www.apache.org/licenses/LICENSE-2.0)
/BeginEPSF { %def
/b4_Inc_state save def         % Save state for cleanup
/dict_count countdictstack def % Count objects on dict stack
/op_count count 1 sub def      % Count objects on operand stack
userdict begin                 % Push userdict on dict stack
/showpage { } def              % Redefine showpage, { } = null proc
0 setgray 0 setlinecap         % Prepare graphics state
1 setlinewidth 0 setlinejoin
10 setmiterlimit [ ] 0 setdash newpath
/languagelevel where           % If level not equal to 1 then
{pop languagelevel             % set strokeadjust and
1 ne                           % overprint to their defaults.
{false setstrokeadjust false setoverprint
} if
} if
} bd
/EndEPSF { %def
count op_count sub {pop} repeat            % Clean up stacks
countdictstack dict_count sub {end} repeat
b4_Inc_state restore
} bd
%%EndResource
%FOPBeginFontDict
%%IncludeResource: font Courier-Oblique
%%IncludeResource: font Courier-BoldOblique
%%IncludeResource: font Courier-Bold
%%IncludeResource: font ZapfDingbats
%%IncludeResource: font Symbol
%%IncludeResource: font Helvetica
%%IncludeResource: font Helvetica-Oblique
%%IncludeResource: font Helvetica-Bold
%%IncludeResource: font Helvetica-BoldOblique
%%IncludeResource: font Times-Roman
%%IncludeResource: font Times-Italic
%%IncludeResource: font Times-Bold
%%IncludeResource: font Times-BoldItalic
%%IncludeResource: font Courier
%FOPEndFontDict
%%BeginResource: encoding WinAnsiEncoding
/WinAnsiEncoding [
/.notdef /.notdef /.notdef /.notdef /.notdef
/.notdef /.notdef /.notdef /.notdef /.notdef
/.notdef /.notdef /.notdef /.notdef /.notdef
/.notdef /.notdef /.notdef /.notdef /.notdef
/.notdef /.notdef /.notdef /.notdef /.notdef
/.notdef /.notdef /.notdef /.notdef /.notdef
/.notdef /.notdef /space /exclam /quotedbl
/numbersign /dollar /percent /ampersand /quotesingle
/parenleft /parenright /asterisk /plus /comma
/hyphen /period /slash /zero /one
/two /three /four /five /six
/seven /eight /nine /colon /semicolon
/less /equal /greater /question /at
/A /B /C /D /E
/F /G /H /I /J
/K /L /M /N /O
/P /Q /R /S /T
/U /V /W /X /Y
/Z /bracketleft /backslash /bracketright /asciicircum
/underscore /quoteleft /a /b /c
/d /e /f /g /h
/i /j /k /l /m
/n /o /p /q /r
/s /t /u /v /w
/x /y /z /braceleft /bar
/braceright /asciitilde /bullet /Euro /bullet
/quotesinglbase /florin /quotedblbase /ellipsis /dagger
/daggerdbl /circumflex /perthousand /Scaron /guilsinglleft
/OE /bullet /Zcaron /bullet /bullet
/quoteleft /quoteright /quotedblleft /quotedblright /bullet
/endash /emdash /asciitilde /trademark /scaron
/guilsinglright /oe /bullet /zcaron /Ydieresis
/space /exclamdown /cent /sterling /currency
/yen /brokenbar /section /dieresis /copyright
/ordfeminine /guillemotleft /logicalnot /sfthyphen /registered
/macron /degree /plusminus /twosuperior /threesuperior
/acute /mu /paragraph /middot /cedilla
/onesuperior /ordmasculine /guillemotright /onequarter /onehalf
/threequarters /questiondown /Agrave /Aacute /Acircumflex
/Atilde /Adieresis /Aring /AE /Ccedilla
/Egrave /Eacute /Ecircumflex /Edieresis /Igrave
/Iacute /Icircumflex /Idieresis /Eth /Ntilde
/Ograve /Oacute /Ocircumflex /Otilde /Odieresis
/multiply /Oslash /Ugrave /Uacute /Ucircumflex
/Udieresis /Yacute /Thorn /germandbls /agrave
/aacute /acircumflex /atilde /adieresis /aring
/ae /ccedilla /egrave /eacute /ecircumflex
/edieresis /igrave /iacute /icircumflex /idieresis
/eth /ntilde /ograve /oacute /ocircumflex
/otilde /odieresis /divide /oslash /ugrave
/uacute /ucircumflex /udieresis /yacute /thorn
/ydieresis
] def
%%EndResource
%FOPBeginFontReencode
/Courier-Oblique findfont
dup length dict begin
  {1 index /FID ne {def} {pop pop} ifelse} forall
  /Encoding WinAnsiEncoding def
  currentdict
end
/Courier-Oblique exch definefont pop
/Courier-BoldOblique findfont
dup length dict begin
  {1 index /FID ne {def} {pop pop} ifelse} forall
  /Encoding WinAnsiEncoding def
  currentdict
end
/Courier-BoldOblique exch definefont pop
/Courier-Bold findfont
dup length dict begin
  {1 index /FID ne {def} {pop pop} ifelse} forall
  /Encoding WinAnsiEncoding def
  currentdict
end
/Courier-Bold exch definefont pop
/Helvetica findfont
dup length dict begin
  {1 index /FID ne {def} {pop pop} ifelse} forall
  /Encoding WinAnsiEncoding def
  currentdict
end
/Helvetica exch definefont pop
/Helvetica-Oblique findfont
dup length dict begin
  {1 index /FID ne {def} {pop pop} ifelse} forall
  /Encoding WinAnsiEncoding def
  currentdict
end
/Helvetica-Oblique exch definefont pop
/Helvetica-Bold findfont
dup length dict begin
  {1 index /FID ne {def} {pop pop} ifelse} forall
  /Encoding WinAnsiEncoding def
  currentdict
end
/Helvetica-Bold exch definefont pop
/Helvetica-BoldOblique findfont
dup length dict begin
  {1 index /FID ne {def} {pop pop} ifelse} forall
  /Encoding WinAnsiEncoding def
  currentdict
end
/Helvetica-BoldOblique exch definefont pop
/Times-Roman findfont
dup length dict begin
  {1 index /FID ne {def} {pop pop} ifelse} forall
  /Encoding WinAnsiEncoding def
  currentdict
end
/Times-Roman exch definefont pop
/Times-Italic findfont
dup length dict begin
  {1 index /FID ne {def} {pop pop} ifelse} forall
  /Encoding WinAnsiEncoding def
  currentdict
end
/Times-Italic exch definefont pop
/Times-Bold findfont
dup length dict begin
  {1 index /FID ne {def} {pop pop} ifelse} forall
  /Encoding WinAnsiEncoding def
  currentdict
end
/Times-Bold exch definefont pop
/Times-BoldItalic findfont
dup length dict begin
  {1 index /FID ne {def} {pop pop} ifelse} forall
  /Encoding WinAnsiEncoding def
  currentdict
end
/Times-BoldItalic exch definefont pop
/Courier findfont
dup length dict begin
  {1 index /FID ne {def} {pop pop} ifelse} forall
  /Encoding WinAnsiEncoding def
  currentdict
end
/Courier exch definefont pop
%FOPEndFontReencode
%%EndProlog
%%Page: 1 1
%%PageBoundingBox: 0 0 893 344
%%BeginPageSetup
[1 0 0 -1 0 344] CT
%%EndPageSetup
GS
[0.75 0 0 0.75 0 -0.25] CT
N
0 0 M
1191 0 L
1191 459 L
0 459 L
0 0 L
cp
clip
1 GC
N
0 0 1191 459 re
f
GR
GS
[0.75 0 0 0.75 0 -0.25] CT
1 GC
N
0 0 1191 459 re
f
GR
GS
[0.75 0 0 0.75 0 -0.25] CT
1 GC
N
155 409 M
1078 409 L
1078 34 L
155 34 L
cp
f
GR
GS
[0.75 0 0 0.75 0 -0.25] CT
0.873 GC
1 LJ
0.667 LW
N
220.929 409 M
220.929 34 L
S
GR
GS
[0.75 0 0 0.75 0 -0.25] CT
0.873 GC
1 LJ
0.667 LW
N
352.786 409 M
352.786 34 L
S
GR
GS
[0.75 0 0 0.75 0 -0.25] CT
0.873 GC
1 LJ
0.667 LW
N
484.643 409 M
484.643 34 L
S
GR
GS
[0.75 0 0 0.75 0 -0.25] CT
0.873 GC
1 LJ
0.667 LW
N
616.5 409 M
616.5 34 L
S
GR
GS
[0.75 0 0 0.75 0 -0.25] CT
0.873 GC
1 LJ
0.667 LW
N
748.357 409 M
748.357 34 L
S
GR
GS
[0.75 0 0 0.75 0 -0.25] CT
0.873 GC
1 LJ
0.667 LW
N
880.214 409 M
880.214 34 L
S
GR
GS
[0.75 0 0 0.75 0 -0.25] CT
0.873 GC
1 LJ
0.667 LW
N
1012.071 409 M
1012.071 34 L
S
GR
GS
[0.75 0 0 0.75 0 -0.25] CT
0.775 GC
[1 3] 0 setdash
2 LJ
0.667 LW
N
1078 352.557 M
155 352.557 L
S
GR
GS
[0.75 0 0 0.75 0 -0.25] CT
0.775 GC
[1 3] 0 setdash
2 LJ
0.667 LW
N
1078 319.54 M
155 319.54 L
S
GR
GS
[0.75 0 0 0.75 0 -0.25] CT
0.775 GC
[1 3] 0 setdash
2 LJ
0.667 LW
N
1078 296.114 M
155 296.114 L
S
GR
GS
[0.75 0 0 0.75 0 -0.25] CT
0.775 GC
[1 3] 0 setdash
2 LJ
0.667 LW
N
1078 277.943 M
155 277.943 L
S
GR
GS
[0.75 0 0 0.75 0 -0.25] CT
0.775 GC
[1 3] 0 setdash
2 LJ
0.667 LW
N
1078 263.097 M
155 263.097 L
S
GR
GS
[0.75 0 0 0.75 0 -0.25] CT
0.775 GC
[1 3] 0 setdash
2 LJ
0.667 LW
N
1078 250.544 M
155 250.544 L
S
GR
GS
[0.75 0 0 0.75 0 -0.25] CT
0.775 GC
[1 3] 0 setdash
2 LJ
0.667 LW
N
1078 239.671 M
155 239.671 L
S
GR
GS
[0.75 0 0 0.75 0 -0.25] CT
0.775 GC
[1 3] 0 setdash
2 LJ
0.667 LW
N
1078 230.08 M
155 230.08 L
S
GR
GS
[0.75 0 0 0.75 0 -0.25] CT
0.775 GC
[1 3] 0 setdash
2 LJ
0.667 LW
N
1078 165.057 M
155 165.057 L
S
GR
GS
[0.75 0 0 0.75 0 -0.25] CT
0.775 GC
[1 3] 0 setdash
2 LJ
0.667 LW
N
1078 132.04 M
155 132.04 L
S
GR
GS
[0.75 0 0 0.75 0 -0.25] CT
0.775 GC
[1 3] 0 setdash
2 LJ
0.667 LW
N
1078 108.614 M
155 108.614 L
S
GR
GS
[0.75 0 0 0.75 0 -0.25] CT
0.775 GC
[1 3] 0 setdash
2 LJ
0.667 LW
N
1078 90.443 M
155 90.443 L
S
GR
GS
[0.75 0 0 0.75 0 -0.25] CT
0.775 GC
[1 3] 0 setdash
2 LJ
0.667 LW
N
1078 75.597 M
155 75.597 L
S
GR
GS
[0.75 0 0 0.75 0 -0.25] CT
0.775 GC
[1 3] 0 setdash
2 LJ
0.667 LW
N
1078 63.044 M
155 63.044 L
S
GR
GS
[0.75 0 0 0.75 0 -0.25] CT
0.775 GC
[1 3] 0 setdash
2 LJ
0.667 LW
N
1078 52.171 M
155 52.171 L
S
GR
GS
[0.75 0 0 0.75 0 -0.25] CT
0.775 GC
[1 3] 0 setdash
2 LJ
0.667 LW
N
1078 42.58 M
155 42.58 L
S
GR
GS
[0.75 0 0 0.75 0 -0.25] CT
0.873 GC
1 LJ
0.667 LW
N
1078 409 M
155 409 L
S
GR
GS
[0.75 0 0 0.75 0 -0.25] CT
0.873 GC
1 LJ
0.667 LW
N
1078 221.5 M
155 221.5 L
S
GR
GS
[0.75 0 0 0.75 0 -0.25] CT
0.873 GC
1 LJ
0.667 LW
N
1078 34 M
155 34 L
S
GR
GS
[0.75 0 0 0.75 0 -0.25] CT
0.149 GC
1 LJ
0.667 LW
N
155 409 M
1078 409 L
S
GR
GS
[0.75 0 0 0.75 0 -0.25] CT
0 0.447 0.741 RC
N
194.557 409 M
194.557 311.962 L
175.378 311.962 L
175.378 409 L
cp
326.414 409 M
326.414 352.243 L
307.235 352.243 L
307.235 409 L
cp
458.271 409 M
458.271 184.821 L
439.092 184.821 L
439.092 409 L
cp
590.129 409 M
590.129 208.642 L
570.949 208.642 L
570.949 409 L
cp
721.986 409 M
721.986 136.046 L
702.807 136.046 L
702.807 409 L
cp
853.843 409 M
853.843 230.578 L
834.664 230.578 L
834.664 409 L
cp
985.7 409 M
985.7 216.549 L
966.521 216.549 L
966.521 409 L
cp
f
GR
GS
[0.75 0 0 0.75 0 -0.25] CT
10.0 ML
0.667 LW
N
175.378 409 M
175.378 311.962 L
194.557 311.962 L
194.557 409 L
cp
S
GR
GS
[0.75 0 0 0.75 0 -0.25] CT
10.0 ML
0.667 LW
N
307.235 409 M
307.235 352.243 L
326.414 352.243 L
326.414 409 L
cp
S
GR
GS
[0.75 0 0 0.75 0 -0.25] CT
10.0 ML
0.667 LW
N
439.092 409 M
439.092 184.821 L
458.271 184.821 L
458.271 409 L
cp
S
GR
GS
[0.75 0 0 0.75 0 -0.25] CT
10.0 ML
0.667 LW
N
570.949 409 M
570.949 208.642 L
590.129 208.642 L
590.129 409 L
cp
S
GR
GS
[0.75 0 0 0.75 0 -0.25] CT
10.0 ML
0.667 LW
N
702.807 409 M
702.807 136.046 L
721.986 136.046 L
721.986 409 L
cp
S
GR
GS
[0.75 0 0 0.75 0 -0.25] CT
10.0 ML
0.667 LW
N
834.664 409 M
834.664 230.578 L
853.843 230.578 L
853.843 409 L
cp
S
GR
GS
[0.75 0 0 0.75 0 -0.25] CT
10.0 ML
0.667 LW
N
966.521 409 M
966.521 216.549 L
985.7 216.549 L
985.7 409 L
cp
S
GR
GS
[0.75 0 0 0.75 0 -0.25] CT
0.851 0.325 0.098 RC
N
218.531 409 M
218.531 284.908 L
199.352 284.908 L
199.352 409 L
cp
350.388 409 M
350.388 376 L
331.209 376 L
331.209 409 L
cp
482.245 409 M
482.245 184.7 L
463.066 184.7 L
463.066 409 L
cp
614.103 409 M
614.103 225.708 L
594.923 225.708 L
594.923 409 L
cp
745.96 409 M
745.96 114.281 L
726.781 114.281 L
726.781 409 L
cp
877.817 409 M
877.817 209.728 L
858.638 209.728 L
858.638 409 L
cp
f
GR
GS
[0.75 0 0 0.75 0 -0.25] CT
10.0 ML
0.667 LW
N
199.352 409 M
199.352 284.908 L
218.531 284.908 L
218.531 409 L
cp
S
GR
GS
[0.75 0 0 0.75 0 -0.25] CT
10.0 ML
0.667 LW
N
331.209 409 M
331.209 376 L
350.388 376 L
350.388 409 L
cp
S
GR
GS
[0.75 0 0 0.75 0 -0.25] CT
10.0 ML
0.667 LW
N
463.066 409 M
463.066 184.7 L
482.245 184.7 L
482.245 409 L
cp
S
GR
GS
[0.75 0 0 0.75 0 -0.25] CT
10.0 ML
0.667 LW
N
594.923 409 M
594.923 225.708 L
614.103 225.708 L
614.103 409 L
cp
S
GR
GS
[0.75 0 0 0.75 0 -0.25] CT
10.0 ML
0.667 LW
N
726.781 409 M
726.781 114.281 L
745.96 114.281 L
745.96 409 L
cp
S
GR
GS
[0.75 0 0 0.75 0 -0.25] CT
10.0 ML
0.667 LW
N
858.638 409 M
858.638 209.728 L
877.817 209.728 L
877.817 409 L
cp
S
GR
GS
[0.75 0 0 0.75 0 -0.25] CT
0.929 0.694 0.125 RC
N
242.505 409 M
242.505 268.547 L
223.326 268.547 L
223.326 409 L
cp
374.362 409 M
374.362 338.728 L
355.183 338.728 L
355.183 409 L
cp
506.219 409 M
506.219 132.87 L
487.04 132.87 L
487.04 409 L
cp
638.077 409 M
638.077 232.311 L
618.897 232.311 L
618.897 409 L
cp
769.934 409 M
769.934 117.775 L
750.755 117.775 L
750.755 409 L
cp
901.791 409 M
901.791 229.872 L
882.612 229.872 L
882.612 409 L
cp
f
GR
GS
[0.75 0 0 0.75 0 -0.25] CT
10.0 ML
0.667 LW
N
223.326 409 M
223.326 268.547 L
242.505 268.547 L
242.505 409 L
cp
S
GR
GS
[0.75 0 0 0.75 0 -0.25] CT
10.0 ML
0.667 LW
N
355.183 409 M
355.183 338.728 L
374.362 338.728 L
374.362 409 L
cp
S
GR
GS
[0.75 0 0 0.75 0 -0.25] CT
10.0 ML
0.667 LW
N
487.04 409 M
487.04 132.87 L
506.219 132.87 L
506.219 409 L
cp
S
GR
GS
[0.75 0 0 0.75 0 -0.25] CT
10.0 ML
0.667 LW
N
618.897 409 M
618.897 232.311 L
638.077 232.311 L
638.077 409 L
cp
S
GR
GS
[0.75 0 0 0.75 0 -0.25] CT
10.0 ML
0.667 LW
N
750.755 409 M
750.755 117.775 L
769.934 117.775 L
769.934 409 L
cp
S
GR
GS
[0.75 0 0 0.75 0 -0.25] CT
10.0 ML
0.667 LW
N
882.612 409 M
882.612 229.872 L
901.791 229.872 L
901.791 409 L
cp
S
GR
GS
[0.75 0 0 0.75 0 -0.25] CT
0.494 0.184 0.557 RC
N
266.479 409 M
266.479 255.251 L
247.3 255.251 L
247.3 409 L
cp
398.336 409 M
398.336 359.248 L
379.157 359.248 L
379.157 409 L
cp
530.194 409 M
530.194 170.936 L
511.014 170.936 L
511.014 409 L
cp
662.051 409 M
662.051 221.469 L
642.871 221.469 L
642.871 409 L
cp
793.908 409 M
793.908 108.209 L
774.729 108.209 L
774.729 409 L
cp
925.765 409 M
925.765 208.138 L
906.586 208.138 L
906.586 409 L
cp
1057.622 409 M
1057.622 220.527 L
1038.443 220.527 L
1038.443 409 L
cp
f
GR
GS
[0.75 0 0 0.75 0 -0.25] CT
10.0 ML
0.667 LW
N
247.3 409 M
247.3 255.251 L
266.479 255.251 L
266.479 409 L
cp
S
GR
GS
[0.75 0 0 0.75 0 -0.25] CT
10.0 ML
0.667 LW
N
379.157 409 M
379.157 359.248 L
398.336 359.248 L
398.336 409 L
cp
S
GR
GS
[0.75 0 0 0.75 0 -0.25] CT
10.0 ML
0.667 LW
N
511.014 409 M
511.014 170.936 L
530.194 170.936 L
530.194 409 L
cp
S
GR
GS
[0.75 0 0 0.75 0 -0.25] CT
10.0 ML
0.667 LW
N
642.871 409 M
642.871 221.469 L
662.051 221.469 L
662.051 409 L
cp
S
GR
GS
[0.75 0 0 0.75 0 -0.25] CT
10.0 ML
0.667 LW
N
774.729 409 M
774.729 108.209 L
793.908 108.209 L
793.908 409 L
cp
S
GR
GS
[0.75 0 0 0.75 0 -0.25] CT
10.0 ML
0.667 LW
N
906.586 409 M
906.586 208.138 L
925.765 208.138 L
925.765 409 L
cp
S
GR
GS
[0.75 0 0 0.75 0 -0.25] CT
10.0 ML
0.667 LW
N
1038.443 409 M
1038.443 220.527 L
1057.622 220.527 L
1057.622 409 L
cp
S
GR
GS
[0.75 0 0 0.75 0 -0.25] CT
0.149 GC
2 setlinecap
1 LJ
0.667 LW
N
155 409 M
1078 409 L
S
GR
GS
[0.75 0 0 0.75 0 -0.25] CT
0.149 GC
2 setlinecap
1 LJ
0.667 LW
N
155 34 M
1078 34 L
S
GR
GS
[0.75 0 0 0.75 0 -0.25] CT
0.149 GC
2 setlinecap
1 LJ
0.667 LW
N
220.929 409 M
220.929 399.77 L
S
GR
GS
[0.75 0 0 0.75 0 -0.25] CT
0.149 GC
2 setlinecap
1 LJ
0.667 LW
N
352.786 409 M
352.786 399.77 L
S
GR
GS
[0.75 0 0 0.75 0 -0.25] CT
0.149 GC
2 setlinecap
1 LJ
0.667 LW
N
484.643 409 M
484.643 399.77 L
S
GR
GS
[0.75 0 0 0.75 0 -0.25] CT
0.149 GC
2 setlinecap
1 LJ
0.667 LW
N
616.5 409 M
616.5 399.77 L
S
GR
GS
[0.75 0 0 0.75 0 -0.25] CT
0.149 GC
2 setlinecap
1 LJ
0.667 LW
N
748.357 409 M
748.357 399.77 L
S
GR
GS
[0.75 0 0 0.75 0 -0.25] CT
0.149 GC
2 setlinecap
1 LJ
0.667 LW
N
880.214 409 M
880.214 399.77 L
S
GR
GS
[0.75 0 0 0.75 0 -0.25] CT
0.149 GC
2 setlinecap
1 LJ
0.667 LW
N
1012.071 409 M
1012.071 399.77 L
S
GR
GS
[0.75 0 0 0.75 0 -0.25] CT
0.149 GC
2 setlinecap
1 LJ
0.667 LW
N
220.929 34 M
220.929 43.23 L
S
GR
GS
[0.75 0 0 0.75 0 -0.25] CT
0.149 GC
2 setlinecap
1 LJ
0.667 LW
N
352.786 34 M
352.786 43.23 L
S
GR
GS
[0.75 0 0 0.75 0 -0.25] CT
0.149 GC
2 setlinecap
1 LJ
0.667 LW
N
484.643 34 M
484.643 43.23 L
S
GR
GS
[0.75 0 0 0.75 0 -0.25] CT
0.149 GC
2 setlinecap
1 LJ
0.667 LW
N
616.5 34 M
616.5 43.23 L
S
GR
GS
[0.75 0 0 0.75 0 -0.25] CT
0.149 GC
2 setlinecap
1 LJ
0.667 LW
N
748.357 34 M
748.357 43.23 L
S
GR
GS
[0.75 0 0 0.75 0 -0.25] CT
0.149 GC
2 setlinecap
1 LJ
0.667 LW
N
880.214 34 M
880.214 43.23 L
S
GR
GS
[0.75 0 0 0.75 0 -0.25] CT
0.149 GC
2 setlinecap
1 LJ
0.667 LW
N
1012.071 34 M
1012.071 43.23 L
S
GR
GS
[0.75 0 0 0.75 165.69643 310.50001] CT
0.149 GC
/Helvetica 13.333 F
GS
[1 0 0 1 0 0] CT
-17 12 moveto 
1 -1 scale
(CRC32) t 
GR
GR
GS
[0.75 0 0 0.75 264.58928 310.50001] CT
0.149 GC
/Helvetica 13.333 F
GS
[1 0 0 1 0 0] CT
-13.5 12 moveto 
1 -1 scale
(CSUM) t 
GR
GR
GS
[0.75 0 0 0.75 363.48214 310.50001] CT
0.149 GC
/Helvetica 13.333 F
GS
[1 0 0 1 0 0] CT
-20 12 moveto 
1 -1 scale
(MISTY1) t 
GR
GR
GS
[0.75 0 0 0.75 462.375 310.50001] CT
0.149 GC
/Helvetica 13.333 F
GS
[1 0 0 1 0 0] CT
-23.5 12 moveto 
1 -1 scale
(Finnish) t 
GR
GR
GS
[0.75 0 0 0.75 561.26784 310.50001] CT
0.149 GC
/Helvetica 13.333 F
GS
[1 0 0 1 0 0] CT
-20 12 moveto 
1 -1 scale
(Motion) t 
GR
GR
GS
[0.75 0 0 0.75 660.16072 310.50001] CT
0.149 GC
/Helvetica 13.333 F
GS
[1 0 0 1 0 0] CT
-10 12 moveto 
1 -1 scale
(RC6) t 
GR
GR
GS
[0.75 0 0 0.75 759.05356 310.50001] CT
0.149 GC
/Helvetica 13.333 F
GS
[1 0 0 1 0 0] CT
-27 12 moveto 
1 -1 scale
(CoreMark) t 
GR
GR
GS
[0.75 0 0 0.75 462.37532 321.99999] CT
0.149 GC
/Helvetica 14.667 F
GS
[1 0 0 1 0 0] CT
-33 13 moveto 
1 -1 scale
(Benchmark) t 
GR
GR
GS
[0.75 0 0 0.75 0 -0.25] CT
0.149 GC
2 setlinecap
1 LJ
0.667 LW
N
155 409 M
155 34 L
S
GR
GS
[0.75 0 0 0.75 0 -0.25] CT
0.149 GC
2 setlinecap
1 LJ
0.667 LW
N
1078 409 M
1078 34 L
S
GR
GS
[0.75 0 0 0.75 0 -0.25] CT
0.149 GC
2 setlinecap
1 LJ
0.667 LW
N
155 409 M
164.23 409 L
S
GR
GS
[0.75 0 0 0.75 0 -0.25] CT
0.149 GC
2 setlinecap
1 LJ
0.667 LW
N
155 221.5 M
164.23 221.5 L
S
GR
GS
[0.75 0 0 0.75 0 -0.25] CT
0.149 GC
2 setlinecap
1 LJ
0.667 LW
N
155 34 M
164.23 34 L
S
GR
GS
[0.75 0 0 0.75 0 -0.25] CT
0.149 GC
2 setlinecap
1 LJ
0.667 LW
N
1078 409 M
1068.77 409 L
S
GR
GS
[0.75 0 0 0.75 0 -0.25] CT
0.149 GC
2 setlinecap
1 LJ
0.667 LW
N
1078 221.5 M
1068.77 221.5 L
S
GR
GS
[0.75 0 0 0.75 0 -0.25] CT
0.149 GC
2 setlinecap
1 LJ
0.667 LW
N
1078 34 M
1068.77 34 L
S
GR
GS
[0.75 0 0 0.75 0 -0.25] CT
0.149 GC
2 setlinecap
1 LJ
0.667 LW
N
155 409 M
159.615 409 L
S
GR
GS
[0.75 0 0 0.75 0 -0.25] CT
0.149 GC
2 setlinecap
1 LJ
0.667 LW
N
155 352.557 M
159.615 352.557 L
S
GR
GS
[0.75 0 0 0.75 0 -0.25] CT
0.149 GC
2 setlinecap
1 LJ
0.667 LW
N
155 319.54 M
159.615 319.54 L
S
GR
GS
[0.75 0 0 0.75 0 -0.25] CT
0.149 GC
2 setlinecap
1 LJ
0.667 LW
N
155 296.114 M
159.615 296.114 L
S
GR
GS
[0.75 0 0 0.75 0 -0.25] CT
0.149 GC
2 setlinecap
1 LJ
0.667 LW
N
155 277.943 M
159.615 277.943 L
S
GR
GS
[0.75 0 0 0.75 0 -0.25] CT
0.149 GC
2 setlinecap
1 LJ
0.667 LW
N
155 263.097 M
159.615 263.097 L
S
GR
GS
[0.75 0 0 0.75 0 -0.25] CT
0.149 GC
2 setlinecap
1 LJ
0.667 LW
N
155 250.544 M
159.615 250.544 L
S
GR
GS
[0.75 0 0 0.75 0 -0.25] CT
0.149 GC
2 setlinecap
1 LJ
0.667 LW
N
155 239.671 M
159.615 239.671 L
S
GR
GS
[0.75 0 0 0.75 0 -0.25] CT
0.149 GC
2 setlinecap
1 LJ
0.667 LW
N
155 230.08 M
159.615 230.08 L
S
GR
GS
[0.75 0 0 0.75 0 -0.25] CT
0.149 GC
2 setlinecap
1 LJ
0.667 LW
N
155 221.5 M
159.615 221.5 L
S
GR
GS
[0.75 0 0 0.75 0 -0.25] CT
0.149 GC
2 setlinecap
1 LJ
0.667 LW
N
155 165.057 M
159.615 165.057 L
S
GR
GS
[0.75 0 0 0.75 0 -0.25] CT
0.149 GC
2 setlinecap
1 LJ
0.667 LW
N
155 132.04 M
159.615 132.04 L
S
GR
GS
[0.75 0 0 0.75 0 -0.25] CT
0.149 GC
2 setlinecap
1 LJ
0.667 LW
N
155 108.614 M
159.615 108.614 L
S
GR
GS
[0.75 0 0 0.75 0 -0.25] CT
0.149 GC
2 setlinecap
1 LJ
0.667 LW
N
155 90.443 M
159.615 90.443 L
S
GR
GS
[0.75 0 0 0.75 0 -0.25] CT
0.149 GC
2 setlinecap
1 LJ
0.667 LW
N
155 75.597 M
159.615 75.597 L
S
GR
GS
[0.75 0 0 0.75 0 -0.25] CT
0.149 GC
2 setlinecap
1 LJ
0.667 LW
N
155 63.044 M
159.615 63.044 L
S
GR
GS
[0.75 0 0 0.75 0 -0.25] CT
0.149 GC
2 setlinecap
1 LJ
0.667 LW
N
155 52.171 M
159.615 52.171 L
S
GR
GS
[0.75 0 0 0.75 0 -0.25] CT
0.149 GC
2 setlinecap
1 LJ
0.667 LW
N
155 42.58 M
159.615 42.58 L
S
GR
GS
[0.75 0 0 0.75 0 -0.25] CT
0.149 GC
2 setlinecap
1 LJ
0.667 LW
N
155 34 M
159.615 34 L
S
GR
GS
[0.75 0 0 0.75 0 -0.25] CT
0.149 GC
2 setlinecap
1 LJ
0.667 LW
N
1078 409 M
1073.385 409 L
S
GR
GS
[0.75 0 0 0.75 0 -0.25] CT
0.149 GC
2 setlinecap
1 LJ
0.667 LW
N
1078 352.557 M
1073.385 352.557 L
S
GR
GS
[0.75 0 0 0.75 0 -0.25] CT
0.149 GC
2 setlinecap
1 LJ
0.667 LW
N
1078 319.54 M
1073.385 319.54 L
S
GR
GS
[0.75 0 0 0.75 0 -0.25] CT
0.149 GC
2 setlinecap
1 LJ
0.667 LW
N
1078 296.114 M
1073.385 296.114 L
S
GR
GS
[0.75 0 0 0.75 0 -0.25] CT
0.149 GC
2 setlinecap
1 LJ
0.667 LW
N
1078 277.943 M
1073.385 277.943 L
S
GR
GS
[0.75 0 0 0.75 0 -0.25] CT
0.149 GC
2 setlinecap
1 LJ
0.667 LW
N
1078 263.097 M
1073.385 263.097 L
S
GR
GS
[0.75 0 0 0.75 0 -0.25] CT
0.149 GC
2 setlinecap
1 LJ
0.667 LW
N
1078 250.544 M
1073.385 250.544 L
S
GR
GS
[0.75 0 0 0.75 0 -0.25] CT
0.149 GC
2 setlinecap
1 LJ
0.667 LW
N
1078 239.671 M
1073.385 239.671 L
S
GR
GS
[0.75 0 0 0.75 0 -0.25] CT
0.149 GC
2 setlinecap
1 LJ
0.667 LW
N
1078 230.08 M
1073.385 230.08 L
S
GR
GS
[0.75 0 0 0.75 0 -0.25] CT
0.149 GC
2 setlinecap
1 LJ
0.667 LW
N
1078 221.5 M
1073.385 221.5 L
S
GR
GS
[0.75 0 0 0.75 0 -0.25] CT
0.149 GC
2 setlinecap
1 LJ
0.667 LW
N
1078 165.057 M
1073.385 165.057 L
S
GR
GS
[0.75 0 0 0.75 0 -0.25] CT
0.149 GC
2 setlinecap
1 LJ
0.667 LW
N
1078 132.04 M
1073.385 132.04 L
S
GR
GS
[0.75 0 0 0.75 0 -0.25] CT
0.149 GC
2 setlinecap
1 LJ
0.667 LW
N
1078 108.614 M
1073.385 108.614 L
S
GR
GS
[0.75 0 0 0.75 0 -0.25] CT
0.149 GC
2 setlinecap
1 LJ
0.667 LW
N
1078 90.443 M
1073.385 90.443 L
S
GR
GS
[0.75 0 0 0.75 0 -0.25] CT
0.149 GC
2 setlinecap
1 LJ
0.667 LW
N
1078 75.597 M
1073.385 75.597 L
S
GR
GS
[0.75 0 0 0.75 0 -0.25] CT
0.149 GC
2 setlinecap
1 LJ
0.667 LW
N
1078 63.044 M
1073.385 63.044 L
S
GR
GS
[0.75 0 0 0.75 0 -0.25] CT
0.149 GC
2 setlinecap
1 LJ
0.667 LW
N
1078 52.171 M
1073.385 52.171 L
S
GR
GS
[0.75 0 0 0.75 0 -0.25] CT
0.149 GC
2 setlinecap
1 LJ
0.667 LW
N
1078 42.58 M
1073.385 42.58 L
S
GR
GS
[0.75 0 0 0.75 0 -0.25] CT
0.149 GC
2 setlinecap
1 LJ
0.667 LW
N
1078 34 M
1073.385 34 L
S
GR
GS
[0.75 0 0 0.75 93.75 311.75] CT
0.149 GC
/Helvetica 13.333 F
GS
[1 0 0 1 0 0] CT
0 0 moveto 
1 -1 scale
(10) t 
GR
GR
GS
[0.75 0 0 0.75 104.25 307.25] CT
0.149 GC
/Helvetica 10.667 F
GS
[1 0 0 1 0 0] CT
0 0 moveto 
1 -1 scale
(-4) t 
GR
GR
GS
[0.75 0 0 0.75 93.75 171.5] CT
0.149 GC
/Helvetica 13.333 F
GS
[1 0 0 1 0 0] CT
0 0 moveto 
1 -1 scale
(10) t 
GR
GR
GS
[0.75 0 0 0.75 104.25 167] CT
0.149 GC
/Helvetica 10.667 F
GS
[1 0 0 1 0 0] CT
0 0 moveto 
1 -1 scale
(-3) t 
GR
GR
GS
[0.75 0 0 0.75 93.75 30.5] CT
0.149 GC
/Helvetica 13.333 F
GS
[1 0 0 1 0 0] CT
0 0 moveto 
1 -1 scale
(10) t 
GR
GR
GS
[0.75 0 0 0.75 104.25 26] CT
0.149 GC
/Helvetica 10.667 F
GS
[1 0 0 1 0 0] CT
0 0 moveto 
1 -1 scale
(-2) t 
GR
GR
GS
[0 -0.75 0.75 0 90.5 165.87486] CT
0.149 GC
/Helvetica 14.667 F
GS
[1 0 0 1 0 0] CT
-33 -2 moveto 
1 -1 scale
(Power [J]) t 
GR
GR
GS
[0.75 0 0 0.75 0 -0.25] CT
1 GC
N
1067 102 M
1067 45 L
974 45 L
974 102 L
cp
f
GR
GS
[0.75 0 0 0.75 765.75 39.81956] CT
/Helvetica 12 F
GS
[1 0 0 1 0 0] CT
0 4.5 moveto 
1 -1 scale
(pelotta) t 
GR
GR
GS
[0.75 0 0 0.75 0 -0.25] CT
0 0.447 0.741 RC
N
1018 58.259 M
1018 48.593 L
978 48.593 L
978 58.259 L
cp
f
GR
GS
[0.75 0 0 0.75 0 -0.25] CT
10.0 ML
0.667 LW
N
978 58.259 M
978 48.593 L
1018 48.593 L
1018 58.259 L
cp
S
GR
GS
[0.75 0 0 0.75 765.75 49.85652] CT
/Helvetica 12 F
GS
[1 0 0 1 0 0] CT
0 4.5 moveto 
1 -1 scale
(tdsp) t 
GR
GR
GS
[0.75 0 0 0.75 0 -0.25] CT
0.851 0.325 0.098 RC
N
1018 71.641 M
1018 61.976 L
978 61.976 L
978 71.641 L
cp
f
GR
GS
[0.75 0 0 0.75 0 -0.25] CT
10.0 ML
0.667 LW
N
978 71.641 M
978 61.976 L
1018 61.976 L
1018 71.641 L
cp
S
GR
GS
[0.75 0 0 0.75 765.75 59.89348] CT
/Helvetica 12 F
GS
[1 0 0 1 0 0] CT
0 4.5 moveto 
1 -1 scale
(tvliw) t 
GR
GR
GS
[0.75 0 0 0.75 0 -0.25] CT
0.929 0.694 0.125 RC
N
1018 85.024 M
1018 75.359 L
978 75.359 L
978 85.024 L
cp
f
GR
GS
[0.75 0 0 0.75 0 -0.25] CT
10.0 ML
0.667 LW
N
978 85.024 M
978 75.359 L
1018 75.359 L
1018 85.024 L
cp
S
GR
GS
[0.75 0 0 0.75 765.75 69.93044] CT
/Helvetica 12 F
GS
[1 0 0 1 0 0] CT
0 4.5 moveto 
1 -1 scale
(tzscale) t 
GR
GR
GS
[0.75 0 0 0.75 0 -0.25] CT
0.494 0.184 0.557 RC
N
1018 98.407 M
1018 88.741 L
978 88.741 L
978 98.407 L
cp
f
GR
GS
[0.75 0 0 0.75 0 -0.25] CT
10.0 ML
0.667 LW
N
978 98.407 M
978 88.741 L
1018 88.741 L
1018 98.407 L
cp
S
GR
GS
[0.75 0 0 0.75 0 -0.25] CT
0.149 GC
10.0 ML
0.667 LW
N
974 102 M
974 45 L
1067 45 L
1067 102 L
cp
S
GR
%%Trailer
%%Pages: 1
%%EOF
